{
	"configurations" : 
	[
		{
			"directories" : 
			[
				{
					"build" : ".",
					"hasInstallRule" : true,
					"jsonFile" : "directory-.-Debug-d920c2f8d7de9bc9fc6a.json",
					"minimumCMakeVersion" : 
					{
						"string" : "3.16"
					},
					"projectIndex" : 0,
					"source" : ".",
					"targetIndexes" : 
					[
						0,
						1,
						2
					]
				}
			],
			"name" : "Debug",
			"projects" : 
			[
				{
					"directoryIndexes" : 
					[
						0
					],
					"name" : "window-template",
					"targetIndexes" : 
					[
						0,
						1,
						2
					]
				}
			],
			"targets" : 
			[
				{
					"directoryIndex" : 0,
					"id" : "window-template::@6890427a1f51a3e7e1df",
					"jsonFile" : "target-window-template-Debug-a8a83542cc1aec68ae1b.json",
					"name" : "window-template",
					"projectIndex" : 0
				},
				{
					"directoryIndex" : 0,
					"id" : "window-template_autogen::@6890427a1f51a3e7e1df",
					"jsonFile" : "target-window-template_autogen-Debug-15a7af2c21421ebe6421.json",
					"name" : "window-template_autogen",
					"projectIndex" : 0
				},
				{
					"directoryIndex" : 0,
					"id" : "window-template_autogen_timestamp_deps::@6890427a1f51a3e7e1df",
					"jsonFile" : "target-window-template_autogen_timestamp_deps-Debug-257dcfba914682254178.json",
					"name" : "window-template_autogen_timestamp_deps",
					"projectIndex" : 0
				}
			]
		}
	],
	"kind" : "codemodel",
	"paths" : 
	{
		"build" : "/home/zbigniew-kubinski/Projekty-Qt/gui/window-template/window-template-Debug",
		"source" : "/home/zbigniew-kubinski/Projekty-Qt/gui/window-template/window-template"
	},
	"version" : 
	{
		"major" : 2,
		"minor" : 4
	}
}
