{
	"artifacts" : 
	[
		{
			"path" : "window-template"
		}
	],
	"backtrace" : 4,
	"backtraceGraph" : 
	{
		"commands" : 
		[
			"add_executable",
			"_qt_internal_create_executable",
			"qt6_add_executable",
			"qt_add_executable",
			"install",
			"target_link_libraries",
			"set_target_properties",
			"include",
			"find_package",
			"set_property",
			"find_dependency",
			"_qt_internal_find_third_party_dependencies",
			"_qt_internal_find_qt_dependencies"
		],
		"files" : 
		[
			"/opt/Qt-6.5.0/6.5.0/gcc_64/lib/cmake/Qt6Core/Qt6CoreMacros.cmake",
			"CMakeLists.txt",
			"/opt/Qt-6.5.0/6.5.0/gcc_64/lib/cmake/Qt6Widgets/Qt6WidgetsTargets.cmake",
			"/opt/Qt-6.5.0/6.5.0/gcc_64/lib/cmake/Qt6Widgets/Qt6WidgetsConfig.cmake",
			"/opt/Qt-6.5.0/6.5.0/gcc_64/lib/cmake/Qt6/Qt6Config.cmake",
			"/opt/Qt-6.5.0/Tools/CMake/share/cmake-3.24/Modules/FindOpenGL.cmake",
			"/opt/Qt-6.5.0/6.5.0/gcc_64/lib/cmake/Qt6/FindWrapOpenGL.cmake",
			"/opt/Qt-6.5.0/Tools/CMake/share/cmake-3.24/Modules/CMakeFindDependencyMacro.cmake",
			"/opt/Qt-6.5.0/6.5.0/gcc_64/lib/cmake/Qt6/QtPublicDependencyHelpers.cmake",
			"/opt/Qt-6.5.0/6.5.0/gcc_64/lib/cmake/Qt6Gui/Qt6GuiDependencies.cmake",
			"/opt/Qt-6.5.0/6.5.0/gcc_64/lib/cmake/Qt6Gui/Qt6GuiConfig.cmake",
			"/opt/Qt-6.5.0/6.5.0/gcc_64/lib/cmake/Qt6Widgets/Qt6WidgetsDependencies.cmake"
		],
		"nodes" : 
		[
			{
				"file" : 1
			},
			{
				"command" : 3,
				"file" : 1,
				"line" : 23,
				"parent" : 0
			},
			{
				"command" : 2,
				"file" : 0,
				"line" : 741,
				"parent" : 1
			},
			{
				"command" : 1,
				"file" : 0,
				"line" : 549,
				"parent" : 2
			},
			{
				"command" : 0,
				"file" : 0,
				"line" : 588,
				"parent" : 3
			},
			{
				"command" : 4,
				"file" : 1,
				"line" : 55,
				"parent" : 0
			},
			{
				"command" : 5,
				"file" : 1,
				"line" : 45,
				"parent" : 0
			},
			{
				"command" : 8,
				"file" : 1,
				"line" : 13,
				"parent" : 0
			},
			{
				"file" : 4,
				"parent" : 7
			},
			{
				"command" : 8,
				"file" : 4,
				"line" : 157,
				"parent" : 8
			},
			{
				"file" : 3,
				"parent" : 9
			},
			{
				"command" : 7,
				"file" : 3,
				"line" : 52,
				"parent" : 10
			},
			{
				"file" : 2,
				"parent" : 11
			},
			{
				"command" : 6,
				"file" : 2,
				"line" : 61,
				"parent" : 12
			},
			{
				"command" : 5,
				"file" : 0,
				"line" : 550,
				"parent" : 2
			},
			{
				"command" : 7,
				"file" : 3,
				"line" : 40,
				"parent" : 10
			},
			{
				"file" : 11,
				"parent" : 15
			},
			{
				"command" : 12,
				"file" : 11,
				"line" : 39,
				"parent" : 16
			},
			{
				"command" : 10,
				"file" : 8,
				"line" : 111,
				"parent" : 17
			},
			{
				"command" : 8,
				"file" : 7,
				"line" : 47,
				"parent" : 18
			},
			{
				"file" : 10,
				"parent" : 19
			},
			{
				"command" : 7,
				"file" : 10,
				"line" : 40,
				"parent" : 20
			},
			{
				"file" : 9,
				"parent" : 21
			},
			{
				"command" : 11,
				"file" : 9,
				"line" : 30,
				"parent" : 22
			},
			{
				"command" : 10,
				"file" : 8,
				"line" : 36,
				"parent" : 23
			},
			{
				"command" : 8,
				"file" : 7,
				"line" : 47,
				"parent" : 24
			},
			{
				"file" : 6,
				"parent" : 25
			},
			{
				"command" : 8,
				"file" : 6,
				"line" : 13,
				"parent" : 26
			},
			{
				"file" : 5,
				"parent" : 27
			},
			{
				"command" : 9,
				"file" : 5,
				"line" : 512,
				"parent" : 28
			},
			{
				"command" : 6,
				"file" : 5,
				"line" : 510,
				"parent" : 28
			}
		]
	},
	"compileGroups" : 
	[
		{
			"compileCommandFragments" : 
			[
				{
					"fragment" : "-DQT_QML_DEBUG -g"
				},
				{
					"backtrace" : 14,
					"fragment" : "-fPIC"
				},
				{
					"fragment" : "-std=gnu++17"
				}
			],
			"defines" : 
			[
				{
					"backtrace" : 14,
					"define" : "QT_CORE_LIB"
				},
				{
					"backtrace" : 6,
					"define" : "QT_GUI_LIB"
				},
				{
					"backtrace" : 6,
					"define" : "QT_WIDGETS_LIB"
				}
			],
			"includes" : 
			[
				{
					"backtrace" : 0,
					"path" : "/home/zbigniew-kubinski/Projekty-Qt/gui/window-template/window-template-Debug/window-template_autogen/include"
				},
				{
					"backtrace" : 14,
					"isSystem" : true,
					"path" : "/opt/Qt-6.5.0/6.5.0/gcc_64/include/QtCore"
				},
				{
					"backtrace" : 14,
					"isSystem" : true,
					"path" : "/opt/Qt-6.5.0/6.5.0/gcc_64/include"
				},
				{
					"backtrace" : 14,
					"isSystem" : true,
					"path" : "/opt/Qt-6.5.0/6.5.0/gcc_64/mkspecs/linux-g++"
				},
				{
					"backtrace" : 6,
					"isSystem" : true,
					"path" : "/opt/Qt-6.5.0/6.5.0/gcc_64/include/QtWidgets"
				},
				{
					"backtrace" : 6,
					"isSystem" : true,
					"path" : "/opt/Qt-6.5.0/6.5.0/gcc_64/include/QtGui"
				}
			],
			"language" : "CXX",
			"languageStandard" : 
			{
				"backtraces" : 
				[
					14,
					14
				],
				"standard" : "17"
			},
			"sourceIndexes" : 
			[
				0,
				1,
				2,
				6
			]
		}
	],
	"dependencies" : 
	[
		{
			"id" : "window-template_autogen_timestamp_deps::@6890427a1f51a3e7e1df"
		},
		{
			"backtrace" : 0,
			"id" : "window-template_autogen::@6890427a1f51a3e7e1df"
		}
	],
	"id" : "window-template::@6890427a1f51a3e7e1df",
	"install" : 
	{
		"destinations" : 
		[
			{
				"backtrace" : 5,
				"path" : "bin"
			}
		],
		"prefix" : 
		{
			"path" : "/usr/local"
		}
	},
	"link" : 
	{
		"commandFragments" : 
		[
			{
				"fragment" : "-DQT_QML_DEBUG -g",
				"role" : "flags"
			},
			{
				"fragment" : "",
				"role" : "flags"
			},
			{
				"fragment" : "-Wl,-rpath,/opt/Qt-6.5.0/6.5.0/gcc_64/lib:",
				"role" : "libraries"
			},
			{
				"backtrace" : 6,
				"fragment" : "/opt/Qt-6.5.0/6.5.0/gcc_64/lib/libQt6Widgets.so.6.5.0",
				"role" : "libraries"
			},
			{
				"backtrace" : 13,
				"fragment" : "/opt/Qt-6.5.0/6.5.0/gcc_64/lib/libQt6Gui.so.6.5.0",
				"role" : "libraries"
			},
			{
				"backtrace" : 14,
				"fragment" : "/opt/Qt-6.5.0/6.5.0/gcc_64/lib/libQt6Core.so.6.5.0",
				"role" : "libraries"
			},
			{
				"backtrace" : 29,
				"fragment" : "/usr/lib/libGLX.so",
				"role" : "libraries"
			},
			{
				"backtrace" : 30,
				"fragment" : "/usr/lib/libOpenGL.so",
				"role" : "libraries"
			}
		],
		"language" : "CXX"
	},
	"name" : "window-template",
	"nameOnDisk" : "window-template",
	"paths" : 
	{
		"build" : ".",
		"source" : "."
	},
	"sourceGroups" : 
	[
		{
			"name" : "Source Files",
			"sourceIndexes" : 
			[
				0,
				1,
				2,
				6
			]
		},
		{
			"name" : "Header Files",
			"sourceIndexes" : 
			[
				3
			]
		},
		{
			"name" : "",
			"sourceIndexes" : 
			[
				4,
				5
			]
		},
		{
			"name" : "CMake Rules",
			"sourceIndexes" : 
			[
				7,
				8
			]
		}
	],
	"sources" : 
	[
		{
			"backtrace" : 0,
			"compileGroupIndex" : 0,
			"isGenerated" : true,
			"path" : "/home/zbigniew-kubinski/Projekty-Qt/gui/window-template/window-template-Debug/window-template_autogen/mocs_compilation.cpp",
			"sourceGroupIndex" : 0
		},
		{
			"backtrace" : 4,
			"compileGroupIndex" : 0,
			"path" : "main.cpp",
			"sourceGroupIndex" : 0
		},
		{
			"backtrace" : 4,
			"compileGroupIndex" : 0,
			"path" : "mainwindow.cpp",
			"sourceGroupIndex" : 0
		},
		{
			"backtrace" : 4,
			"path" : "mainwindow.h",
			"sourceGroupIndex" : 1
		},
		{
			"backtrace" : 4,
			"path" : "icons.qrc",
			"sourceGroupIndex" : 2
		},
		{
			"backtrace" : 0,
			"isGenerated" : true,
			"path" : "/home/zbigniew-kubinski/Projekty-Qt/gui/window-template/window-template-Debug/window-template_autogen/timestamp",
			"sourceGroupIndex" : 2
		},
		{
			"backtrace" : 0,
			"compileGroupIndex" : 0,
			"isGenerated" : true,
			"path" : "/home/zbigniew-kubinski/Projekty-Qt/gui/window-template/window-template-Debug/window-template_autogen/EWIEGA46WW/qrc_icons.cpp",
			"sourceGroupIndex" : 0
		},
		{
			"backtrace" : 0,
			"isGenerated" : true,
			"path" : "/home/zbigniew-kubinski/Projekty-Qt/gui/window-template/window-template-Debug/window-template_autogen/timestamp.rule",
			"sourceGroupIndex" : 3
		},
		{
			"backtrace" : 0,
			"isGenerated" : true,
			"path" : "/home/zbigniew-kubinski/Projekty-Qt/gui/window-template/window-template-Debug/window-template_autogen/EWIEGA46WW/qrc_icons.cpp.rule",
			"sourceGroupIndex" : 3
		}
	],
	"type" : "EXECUTABLE"
}
